[gd_scene load_steps=8 format=3 uid="uid://cv4fubnbt88bk"]

[ext_resource type="LabelSettings" uid="uid://dv10l6jsbg8rm" path="res://data/system/ui/resources/label_settings/header_outline_28p.tres" id="1_y5sjm"]
[ext_resource type="LabelSettings" uid="uid://dkglp3i4cq3vk" path="res://data/system/ui/resources/label_settings/regular_narrow_outline_24p.tres" id="2_8du67"]
[ext_resource type="LabelSettings" uid="uid://bvm2jee6aqrtd" path="res://data/system/ui/resources/label_settings/bold_narrow_outline_24p.tres" id="3_1hk7x"]
[ext_resource type="LabelSettings" uid="uid://bu38tso2xlxec" path="res://data/system/ui/resources/label_settings/light_narrow_outline_24p.tres" id="4_w3igq"]
[ext_resource type="LabelSettings" uid="uid://dttvidvmna0js" path="res://data/system/ui/resources/label_settings/regular_outline_24p.tres" id="5_rhhft"]
[ext_resource type="LabelSettings" uid="uid://di261n37swhjr" path="res://data/system/ui/resources/label_settings/bold_outline_24p.tres" id="6_rb6mf"]
[ext_resource type="LabelSettings" uid="uid://cicthhnqcu7a6" path="res://data/system/ui/resources/label_settings/light_outline_24p.tres" id="7_j746x"]

[node name="FontZoo" type="VBoxContainer"]
anchors_preset = 8
anchor_left = 0.5
anchor_top = 0.5
anchor_right = 0.5
anchor_bottom = 0.5
offset_left = -295.5
offset_top = -79.0
offset_right = 295.5
offset_bottom = 79.0
grow_horizontal = 2
grow_vertical = 2

[node name="Header" type="Label" parent="."]
layout_mode = 2
text = "Wide (regular) Variants"
label_settings = ExtResource("1_y5sjm")

[node name="Regular" type="Label" parent="."]
layout_mode = 2
text = "Liblast font zoo, 0123456789-+*/ ?!___---[]{}()<> TEST TEXT all variants"
label_settings = ExtResource("5_rhhft")

[node name="Bold" type="Label" parent="."]
layout_mode = 2
text = "Liblast font zoo, 0123456789-+*/ ?!___---[]{}()<> TEST TEXT all variants"
label_settings = ExtResource("6_rb6mf")

[node name="Narrow" type="Label" parent="."]
layout_mode = 2
text = "Liblast font zoo, 0123456789-+*/ ?!___---[]{}()<> TEST TEXT all variants"
label_settings = ExtResource("7_j746x")

[node name="Header2" type="Label" parent="."]
layout_mode = 2
text = "Narrow Variants"
label_settings = ExtResource("1_y5sjm")

[node name="RegularNarrow" type="Label" parent="."]
layout_mode = 2
text = "Liblast font zoo, 0123456789-+*/ ?!___---[]{}()<> TEST TEXT all variants"
label_settings = ExtResource("2_8du67")

[node name="BoldNarrow" type="Label" parent="."]
layout_mode = 2
text = "Liblast font zoo, 0123456789-+*/ ?!___---[]{}()<> TEST TEXT all variants"
label_settings = ExtResource("3_1hk7x")

[node name="LightNarrow" type="Label" parent="."]
layout_mode = 2
text = "Liblast font zoo, 0123456789-+*/ ?!___---[]{}()<> TEST TEXT all variants"
label_settings = ExtResource("4_w3igq")
