[gd_resource type="LabelSettings" load_steps=2 format=3 uid="uid://cicthhnqcu7a6"]

[ext_resource type="FontVariation" uid="uid://bk40njy7l5u5y" path="res://data/system/ui/resources/fonts/light.tres" id="1_ty6lk"]

[resource]
font = ExtResource("1_ty6lk")
font_size = 24
outline_size = 4
outline_color = Color(0, 0, 0, 1)
