[gd_resource type="ShaderMaterial" load_steps=2 format=3 uid="uid://cu2ollyqc43r4"]

[ext_resource type="Shader" path="res://character/shaders/character_collision_shape_editor_debug.gdshader" id="1_amofs"]

[resource]
resource_local_to_scene = true
render_priority = 0
shader = ExtResource("1_amofs")
