[gd_scene load_steps=5 format=3 uid="uid://bu0iy1ltjsqd2"]

[ext_resource type="Script" path="res://system/dedicated.gd" id="1_1nede"]
[ext_resource type="PackedScene" uid="uid://mrvlpxyv4t4i" path="res://system/networking/server/server.tscn" id="2_e2swj"]
[ext_resource type="Script" path="res://system/game/game_config.gd" id="3_t8jr1"]

[sub_resource type="Resource" id="Resource_lo4jp"]
script = ExtResource("3_t8jr1")
map_scene_path = ""

[node name="Dedicated" type="Node"]
script = ExtResource("1_1nede")

[node name="Server" parent="." instance=ExtResource("2_e2swj")]
unique_name_in_owner = true
game_config = SubResource("Resource_lo4jp")
