[gd_resource type="ShaderMaterial" load_steps=2 format=3 uid="uid://6e14k6kfhpmg"]

[ext_resource type="Shader" uid="uid://cflwwj5neibbi" path="res://data/game/shaders/viewmodel_shader.tres" id="1_i555a"]

[resource]
render_priority = 0
shader = ExtResource("1_i555a")
shader_parameter/base_color = Color(0.867188, 0.589577, 0.254555, 1)
shader_parameter/metallic = 1.0
shader_parameter/roughness = 0.596
