[gd_resource type="ShaderMaterial" load_steps=2 format=3 uid="uid://hy10p34thka"]

[ext_resource type="Shader" uid="uid://cflwwj5neibbi" path="res://data/game/shaders/viewmodel_shader.tres" id="1_fehy6"]

[resource]
render_priority = 0
shader = ExtResource("1_fehy6")
shader_parameter/base_color = Color(0.867188, 0.506322, 0.287152, 1)
shader_parameter/metallic = 1.0
shader_parameter/roughness = 0.446
