[gd_resource type="FontVariation" load_steps=2 format=3 uid="uid://c73ev3nyr8n2u"]

[ext_resource type="FontVariation" uid="uid://ctro6ju6n3rb" path="res://data/system/ui/resources/fonts/base.tres" id="1_a55ap"]

[resource]
base_font = ExtResource("1_a55ap")
variation_opentype = {
1936486004: null,
2003072104: 78,
2003265652: 416
}
opentype_features = {
1801810542: 1,
2053468783: 1
}
